{
    "config": {
        "config_json": {
            "env": "stage",
            "general": {
                "package_name": "xpresso.ai",
                "package_path": "/opt/xpresso.ai"
            },
            "structure": {
                "library_structure_list": [
                    "samples",
                    "Makefile",
                    "ReadMe.md",
                    "Release.md",
                    "requirements.txt",
                    "setup.py",
                    "VERSION",
                    "xpresso/__init__.py",
                    "xpresso/ai/__init__.py",
                    "xpresso/ai/client",
                    "xpresso/ai/core",
                    "xprbuild/system/linux/install_alluxio.sh"
                ]
            },
            "ssl": {
                "cert_path": "config/docker-distribution/certs/wildcard.xpresso.ai.cert",
                "pkey_path": "config/docker-distribution/certs/wildcard.xpresso.ai.key",
                "verify": false
            },
            "bundles_setup": {
                "nfs": {
                    "subnet_to_nfs_map": {
                        "nfs1.xpresso.ai": "10.*.*.*",
                        "nfs2.xpresso.ai": "172.*.*.*"
                    },
                    "mount_location": "/mnt/nfs/data",
                    "nfs_location": "/mnt/exports/vmdata1/xpresso_platform_qa"
                },
                "base_bundle_dependency": {
                    "dependency_config_file": "config/dependency_config.json"
                },
                "option_bundle_dependency": {
                    "dependency_config_file": "config/option_bundle_dependency.json"
                },
                "apt-get-repo": {
                    "package_root_folder": "/mnt/nfs/data/admin/packages",
                    "public_key_file": "${package_root_folder}/secret/esx-gpg-public.key",
                    "private_key_file": "${package_root_folder}/secret/esx-gpg-private.key",
                    "hosted_package": "${package_root_folder}/hosted_packages",
                    "package-list": "scripts/linux/ubuntu/apt-get-repo/full-package-list.txt",
                    "meta_packages_folder": "config/apt-get/metapackages",
                    "docker-name": "apt-get-repo",
                    "dockerfile-path": "scripts/docker/apt-get-repo/apt-mirror.dockerfile"
                },
                "kubernetes": {
                    "pod_network_cidr": "10.244.0.0/16"
                },
                "base_ubuntu": {
                    "pkg_list": [
                        "build-essential",
                        "vim",
                        "curl",
                        "python3-dev",
                        "python3.7-dev",
                        "python-dev",
                        "libcurl4-openssl-dev",
                        "libssl-dev",
                        "libffi-dev",
                        "git",
                        "wget",
                        "tmux",
                        "libfreetype6",
                        "apt-transport-https",
                        "ca-certificates",
                        "software-properties-common",
                        "locales",
                        "pkg-config",
                        "nano",
                        "cmake",
                        "libxml2-dev",
                        "libxmlsec1-dev",
                        "checkinstall",
                        "libsasl2-dev",
                        "libldap2-dev"
                    ]
                },
                "docker_distribution": {
                    "harbor_cfg_file": "config/harbor/harbor.cfg",
                    "harbor_compose_file": "config/harbor/docker-compose.yml",
                    "harbor_folder": "/opt/harbor",
                    "docker_distribution_folder": "/opt/docker-distribution",
                    "docker_distribution_local_folder": "config/docker-distribution"
                },
                "development_vm": {
                    "requirement_file": "config/development_vm/requirements.txt"
                },
                "kong": {
                    "host_mount_path": "/mnt/nfs/data/xpresso_platform/external/kong"
                },
                "pachyderm": {
                    "minio_spec_path": "config/pachyderm_setup/minio_setup",
                    "minio_namespace": "minio-pachyderm",
                    "minio_pv_nfs_mount_path": "/mnt/exports/vmdata1/xpresso_platform_ENV/pachyderm/minio",
                    "pachyderm_namespace": "pachyderm",
                    "pachctl_pkg_link": "https://github.com/pachyderm/pachyderm/releases/download/v1.9.0/pachctl_1.9.0_amd64.deb",
                    "pachyderm_spec_path": "config/pachyderm_setup/pachyderm_setup.yaml",
                    "release_name": "pachyderm-release",
                    "pachyderm_etcd_path": "config/pachyderm_setup/pachyderm-etcd-pv.yaml",
                    "pachyderm_etcd_pv_nfs_mount_path": "/mnt/exports/vmdata1/xpresso_platform_ENV/pachyderm/etcd"
                }
            },
            "connectors": {
                "presto": {
                    "presto_ip": "connectors-presto-qa.xpresso.lan",
                    "presto_port": 8082,
                    "presto_user": "root",
                    "DSN": {
                        "testing_mysql": {
                            "catalog": "mysql",
                            "schema": "presto"
                        },
                        "testing_cassandra": {
                            "catalog": "cassandra",
                            "schema": "test_db"
                        },
                        "testing_sqlserver": {
                            "catalog": "sqlserver",
                            "schema": "dbo"
                        },
                        "testing_mongodb": {
                            "catalog": "mongo",
                            "schema": "test"
                        }
                    }
                },
                "alluxio": {
                    "alluxio_ip": "connectors-alluxio-qa.xpresso.lan",
                    "alluxio_port": "39999"
                },
                "hdfs": {
                    "hdfs_ip": "connectors-hdfs-qa.xpresso.lan",
                    "hdfs_port": "8020"
                }
            },
            "controller": {
                "server_url": "https://controller-qa.xpresso.lan:5050",
                "client_path": ".xpr/",
                "soft_expiry": 1800,
                "hard_expiry": 86400
            },
            "mongodb": {
                "mongo_url": "mongodb://mongo-qa.xpresso.lan:27017/?replicaSet=rs0",
                "local_mongo_url": "mongodb://localhost:27017/?replicaSet=rs0",
                "database": "xprdb",
                "mongo_uid": "xprdb_admin",
                "mongo_pwd": "xprdb@Abz00ba",
                "w": 1,
                "interval_between_retries": 5,
                "max_retries": 2,
                "experiment_collection": "experiments",
                "run_collection": "runs",
                "index": {
                    "runs": {
                        "key_name": [
                            [
                                "run_name",
                                1
                            ]
                        ],
                        "index_name": "run_name"
                    },
                    "projects": {
                        "key_name": [
                            [
                                "name",
                                1
                            ]
                        ],
                        "index_name": "project_name"
                    },
                    "pipelines": {
                        "key_name": [
                            [
                                "pipelines.name",
                                1
                            ]
                        ],
                        "index_name": "pipeline_name"
                    },
                    "experiments": {
                        "key_name": [
                            [
                                "experiment name",
                                1
                            ]
                        ],
                        "index_name": "experiment_name"
                    },
                    "users": {
                        "key_name": [
                            [
                                "uid",
                                1
                            ]
                        ],
                        "index_name": "user_name"
                    }
                }
            },
            "vms": {
                "username": "root",
                "password": "abz00ba1nc#123",
                "guest_login": {
                    "username": "xpr_guest",
                    "password": "E50mX6HaIZ#",
                    "group": "xpr_guest"
                }
            },
            "build_management": {
                "build_tool": "jenkins",
                "jenkins": {
                    "master_host": "http://jenkins-qa.xpresso.lan:8080",
                    "username": "xpradmin",
                    "password": "Xpresso@Abz00ba2019#@!",
                    "template_job": "template-pipeline"
                }
            },
            "code_management": {
                "code_manager_tool": "bitbucket",
                "skeleton_path": "http://bitbucket.org/abzooba-screpo/skeleton-build.git",
                "bitbucket": {
                    "restapi": "https://api.bitbucket.org/2.0",
                    "teamname": "xpresso_teams_stage",
                    "username": "bbdevadm",
                    "password": "#Abzbbdevadm@2019"
                }
            },
            "ldap": {
                "ldap_url": "ldap://ldap-qa.xpresso.lan:30389"
            },
            "authentication_type": "ldap",
            "component_deployment_manager_flavor": "kubernetes",
            "kubernetes": {
                "secure_port": "6443"
            },
            "kubeflow": {
                "secure_port": "6443",
                "pv_mount_location_prefix": "/mnt/data/projects"
            },
            "istio": {
                "secure_port": "6443",
                "dashboard_info_suffix": "/d/yYViFIEZk/xpresso-service-mesh"
            },
            "projects": {
                "deployment_files_folder": "deployment_files",
                "declarative_pipeline_folder": "deployment_files/declarative_pipeline_files",
                "kubeflow_template": "xpresso/ai/server/controller/project_management/kubeflow/declarative_pipeline/kubeflow_template",
                "spark_submit_folder": "xpresso/ai/server/controller/project_management/spark/pipeline_builder",
                "spark_submit_template": "spark_submit_template",
                "valid_environments": [
                    "DEV",
                    "INT",
                    "QA",
                    "UAT",
                    "PROD"
                ]
            },
            "email_notification": {
                "smtphost": "smtp.gmail.com",
                "smtpport": 587,
                "sender_mail": "##",
                "sender_passwd": "##"
            },
            "gateway": {
                "provider": "kong",
                "admin_url": "http://172.16.3.1:8001",
                "proxy_url": "http://172.16.3.1:8000"
            },
            "pachyderm_server": {
                "cluster_ip": "pachyderm-cluster-qa.xpresso.lan",
                "port": 30650
            },
            "docker_registry": {
                "host": "dockerregistry.xpresso.lan",
                "username": "admin",
                "password": "Abz00ba@123"
            },
            "visualization": {
                "logo_path": "static/logo.png"
            },
            "distributed_exploration": {
                "hdfs_ip": "dist-exploration-hdfs-qa.xpresso.lan",
                "ui_port": "50070",
                "ipc_port": "8020",
                "folder_path": "/user/xprops/DistributedStructuredDataset"
            },
            "logging": {
                "project_name": "default",
                "logstash": {
                    "url": "http://logstash-qa.xpresso.lan:30050"
                },
                "kibana": {
                    "url": "http://kibana-qa.xpresso.lan:30560"
                },
                "elastic_search": {
                    "url": "http://elasticsearch-qa.xpresso.lan:30920"
                },
                "log_handler": {
                    "host": "log-handler-qa.xpresso.lan",
                    "port": 30050,
                    "formatter": {
                        "filename": true,
                        "funcName": true,
                        "levelname": true,
                        "levelno": true,
                        "lineno": true,
                        "module": true,
                        "pathname": true,
                        "process": true,
                        "processName": true,
                        "thread": true,
                        "threadName": true,
                        "msg": true,
                        "exc_info": true,
                        "stack_info": true
                    },
                    "log_to_console": false,
                    "log_to_file": true,
                    "log_to_elk": false,
                    "find_config_recursive": false,
                    "cache_in_file": true,
                    "logs_folder_path": "~/.xpr/logs"
                }
            },
            "data_versioning": {
                "tool": "pachyderm",
                "server": {
                    "cluster_ip": "data-versioning-cluster-qa.xpresso.lan",
                    "port": 30650
                }
            },
            "spark_cluster": {
                "cluster_admin": "xpresso",
                "default_resource_limits": {
                    "driver_memory": "512m",
                    "executor_memory": "512m",
                    "executor_cores": 1,
                    "num_executors": 1
                },
                "xpresso": {
                    "cluster_manager": "k8s",
                    "k8s": {
                        "master": {
                            "host": "spark-k8s-master-host-qa.xpresso.lan",
                            "user": "root",
                            "spark_home": "/opt/spark/spark-2.4.4-bin-hadoop2.7",
                            "service_account": "spark",
                            "secret": "dockerkey",
                            "ip": "spark-k8s-master-ip-qa.xpresso.lan",
                            "job_ui_port": 30252,
                            "port": 6443
                        }
                    },
                    "yarn": {
                        "master": {
                            "host": "spark-yarn-master-host-qa.xpresso.lan",
                            "ip": "spark-yarn-master-ip-qa.xpresso.lan",
                            "user": "root",
                            "job_ui_port": 8088,
                            "spark_home": "/usr/hdp/3.1.4.0-315/spark2"
                        }
                    }
                }
            },
            "pyspark": {
                "secure_port": "22"
            },
            "spark": {
                "secure_port": "22"
            },
            "dashboard": {
                "bitbucket": "https://bitbucket.org/",
                "kubernetes": "https://kubernetes-qa.xpresso.lan:30252/",
                "kibana": "http://kibana-qa.xpresso.lan:30560/",
                "jenkins": "http://jenkins-qa.xpresso.lan:8080",
                "nfs": "nfs-qa.xpresso.lan",
                "kubeflow": "http://kubeflow-qa.xpresso.lan:31380"
            },
            "jenkins": {
                "master_host": "http://jenkins-qa.xpresso.lan:8080"
            }
        },
        "config_file_path": "/home/gagandeep.chhabra/projects/xpresso/xpresso.ai/config/common_stage.json"
    },
    "data": {
        "_is_copy": null,
        "_data": {},
        "_item_cache": {}
    },
    "name": "default",
    "type": "distributed_structured",
    "description": "This is a structured automl",
    "num_records": 0,
    "created_on": "2020-01-30 00:00:00",
    "created_by": "default",
    "project": "default_project",
    "repo": "default",
    "branch": "master",
    "version": 1,
    "tag": "1.0.0",
    "info": {
        "attributeInfo": [
            {
                "name": "id",
                "dataset_type": "distributed_structured",
                "metrics": {
                    "min": 1.0,
                    "max": 72943.0,
                    "mean": 37079.47,
                    "median": 37441.0,
                    "std": 20965.19,
                    "var": 439539191.74,
                    "mode": 1.0,
                    "quartiles": [
                        1.0,
                        19044.0,
                        37441.0,
                        55214.0,
                        72943.0
                    ],
                    "outliers": [],
                    "iqr": 36170.0,
                    "kurtosis": -1.19,
                    "skewness": -0.03,
                    "is_valid": true,
                    "na_count": 0.0,
                    "na_count_percentage": 0.0,
                    "missing_count": 0,
                    "missing_count_percentage": 0.0
                },
                "dtype": "int32",
                "type": "numeric"
            },
            {
                "name": "gender",
                "dataset_type": "distributed_structured",
                "metrics": {
                    "outliers": [
                        "Other"
                    ],
                    "freq_count": {
                        "Female": 53556,
                        "Male": 33639,
                        "Other": 21
                    },
                    "mode": [
                        "Female"
                    ],
                    "na_count": 0.0,
                    "na_count_percentage": 0.0,
                    "missing_count": 0,
                    "missing_count_percentage": 0.0
                },
                "dtype": "object",
                "type": "nominal"
            },
            {
                "name": "age",
                "dataset_type": "distributed_structured",
                "metrics": {
                    "outliers": [
                        52.0,
                        47.0,
                        50.0,
                        44.0,
                        57.0,
                        53.0,
                        78.0,
                        54.0,
                        56.0,
                        49.0,
                        55.0,
                        46.0,
                        45.0,
                        59.0,
                        38.0,
                        60.0,
                        61.0,
                        43.0,
                        58.0,
                        48.0,
                        79.0,
                        31.0,
                        63.0,
                        41.0,
                        40.0,
                        42.0,
                        27.0,
                        62.0,
                        29.0,
                        64.0,
                        39.0,
                        80.0,
                        37.0,
                        28.0,
                        34.0,
                        65.0,
                        36.0,
                        26.0,
                        30.0,
                        33.0,
                        66.0,
                        24.0,
                        23.0,
                        35.0,
                        32.0,
                        21.0,
                        22.0,
                        25.0,
                        20.0,
                        70.0,
                        68.0,
                        67.0,
                        82.0,
                        81.0,
                        19.0,
                        69.0,
                        71.0,
                        18.0,
                        17.0,
                        73.0,
                        72.0,
                        75.0,
                        77.0,
                        74.0,
                        76.0,
                        16.0,
                        15.0,
                        14.0,
                        13.0,
                        12.0,
                        11.0,
                        10.0
                    ],
                    "freq_count": {
                        "51.0": 1758,
                        "52.0": 1680,
                        "47.0": 1647,
                        "50.0": 1632,
                        "44.0": 1629,
                        "57.0": 1629,
                        "53.0": 1626,
                        "78.0": 1587,
                        "54.0": 1587,
                        "56.0": 1578,
                        "49.0": 1560,
                        "55.0": 1560,
                        "46.0": 1539,
                        "45.0": 1536,
                        "59.0": 1494,
                        "38.0": 1461,
                        "60.0": 1455,
                        "61.0": 1452,
                        "43.0": 1443,
                        "58.0": 1437,
                        "48.0": 1434,
                        "79.0": 1413,
                        "31.0": 1395,
                        "63.0": 1395,
                        "41.0": 1374,
                        "40.0": 1350,
                        "42.0": 1347,
                        "27.0": 1347,
                        "62.0": 1341,
                        "29.0": 1332,
                        "64.0": 1317,
                        "39.0": 1281,
                        "80.0": 1278,
                        "37.0": 1278,
                        "28.0": 1275,
                        "34.0": 1257,
                        "65.0": 1245,
                        "36.0": 1239,
                        "26.0": 1230,
                        "30.0": 1218,
                        "33.0": 1206,
                        "66.0": 1203,
                        "24.0": 1197,
                        "23.0": 1188,
                        "35.0": 1173,
                        "32.0": 1173,
                        "21.0": 1155,
                        "22.0": 1155,
                        "25.0": 1140,
                        "20.0": 1128,
                        "70.0": 1068,
                        "68.0": 1065,
                        "67.0": 1020,
                        "82.0": 1020,
                        "81.0": 1008,
                        "19.0": 996,
                        "69.0": 966,
                        "71.0": 918,
                        "18.0": 894,
                        "17.0": 861,
                        "73.0": 858,
                        "72.0": 852,
                        "75.0": 798,
                        "77.0": 750,
                        "74.0": 729,
                        "76.0": 729,
                        "16.0": 681,
                        "15.0": 633,
                        "14.0": 561,
                        "13.0": 471,
                        "12.0": 429,
                        "11.0": 321,
                        "10.0": 234
                    },
                    "mode": [
                        51.0
                    ],
                    "na_count": 0.0,
                    "na_count_percentage": 0.0,
                    "missing_count": 0,
                    "missing_count_percentage": 0.0
                },
                "dtype": "float64",
                "type": "nominal"
            },
            {
                "name": "hypertension",
                "dataset_type": "distributed_structured",
                "metrics": {
                    "outliers": [],
                    "freq_count": {
                        "0": 77493,
                        "1": 9723
                    },
                    "mode": [
                        0
                    ],
                    "na_count": 0.0,
                    "na_count_percentage": 0.0,
                    "missing_count": 0,
                    "missing_count_percentage": 0.0
                },
                "dtype": "int32",
                "type": "nominal"
            },
            {
                "name": "heart_disease",
                "dataset_type": "distributed_structured",
                "metrics": {
                    "outliers": [],
                    "freq_count": {
                        "0": 82668,
                        "1": 4548
                    },
                    "mode": [
                        0
                    ],
                    "na_count": 0.0,
                    "na_count_percentage": 0.0,
                    "missing_count": 0,
                    "missing_count_percentage": 0.0
                },
                "dtype": "int32",
                "type": "nominal"
            },
            {
                "name": "ever_married",
                "dataset_type": "distributed_structured",
                "metrics": {
                    "outliers": [],
                    "freq_count": {
                        "Yes": 65070,
                        "No": 22146
                    },
                    "mode": [
                        "Yes"
                    ],
                    "na_count": 0.0,
                    "na_count_percentage": 0.0,
                    "missing_count": 0,
                    "missing_count_percentage": 0.0
                },
                "dtype": "object",
                "type": "nominal"
            },
            {
                "name": "work_type",
                "dataset_type": "distributed_structured",
                "metrics": {
                    "outliers": [
                        "Never_worked"
                    ],
                    "freq_count": {
                        "Private": 56862,
                        "Self-employed": 15612,
                        "Govt_job": 12588,
                        "children": 1851,
                        "Never_worked": 303
                    },
                    "mode": [
                        "Private"
                    ],
                    "na_count": 0.0,
                    "na_count_percentage": 0.0,
                    "missing_count": 0,
                    "missing_count_percentage": 0.0
                },
                "dtype": "object",
                "type": "nominal"
            },
            {
                "name": "Residence_type",
                "dataset_type": "distributed_structured",
                "metrics": {
                    "outliers": [],
                    "freq_count": {
                        "Urban": 43785,
                        "Rural": 43431
                    },
                    "mode": [
                        "Urban"
                    ],
                    "na_count": 0.0,
                    "na_count_percentage": 0.0,
                    "missing_count": 0,
                    "missing_count_percentage": 0.0
                },
                "dtype": "object",
                "type": "nominal"
            },
            {
                "name": "avg_glucose_level",
                "dataset_type": "distributed_structured",
                "metrics": {
                    "min": 55.01,
                    "max": 291.05,
                    "mean": 106.4,
                    "median": 92.13,
                    "std": 45.27,
                    "var": 2049.37,
                    "mode": 87.15,
                    "quartiles": [
                        55.01,
                        77.62,
                        92.13,
                        113.9,
                        291.05
                    ],
                    "outliers": [],
                    "iqr": 36.28,
                    "kurtosis": 1.65,
                    "skewness": 1.57,
                    "is_valid": true,
                    "na_count": 0.0,
                    "na_count_percentage": 0.0,
                    "missing_count": 0,
                    "missing_count_percentage": 0.0
                },
                "dtype": "float64",
                "type": "numeric"
            },
            {
                "name": "bmi",
                "dataset_type": "distributed_structured",
                "metrics": {
                    "outliers": [
                        26.1,
                        27.6,
                        26.8,
                        27.5,
                        28.6,
                        27.7,
                        30.6,
                        26.2,
                        25.3,
                        27.1,
                        28.4,
                        27.3,
                        29.6,
                        26.9,
                        30.7,
                        26.0,
                        28.1,
                        28.8,
                        28.3,
                        30.0,
                        26.7,
                        24.9,
                        27.0,
                        28.2,
                        27.2,
                        27.9,
                        25.2,
                        24.8,
                        28.9,
                        29.8,
                        30.9,
                        26.5,
                        25.5,
                        29.4,
                        26.6,
                        29.9,
                        24.3,
                        25.4,
                        28.0,
                        27.8,
                        28.7,
                        30.3,
                        26.3,
                        25.1,
                        29.0,
                        29.7,
                        25.7,
                        25.6,
                        25.0,
                        25.9,
                        26.4,
                        24.2,
                        23.0,
                        28.5,
                        24.6,
                        31.5,
                        27.4,
                        32.8,
                        30.8,
                        29.5,
                        24.5,
                        30.2,
                        24.0,
                        24.4,
                        25.8,
                        29.3,
                        22.5,
                        23.8,
                        31.6,
                        24.1,
                        30.4,
                        23.6,
                        22.7,
                        31.7,
                        23.2,
                        30.5,
                        30.1,
                        31.8,
                        31.0,
                        23.3,
                        29.2,
                        23.7,
                        31.1,
                        29.1,
                        31.4,
                        31.9,
                        23.1,
                        32.6,
                        31.2,
                        23.4,
                        22.8,
                        22.1,
                        23.5,
                        24.7,
                        23.9,
                        32.0,
                        32.1,
                        31.3,
                        22.3,
                        22.2,
                        32.2,
                        33.0,
                        33.3,
                        32.9,
                        33.1,
                        22.6,
                        32.4,
                        32.3,
                        32.7,
                        22.4,
                        34.0,
                        21.8,
                        21.1,
                        33.7,
                        33.6,
                        21.4,
                        33.9,
                        21.9,
                        34.3,
                        33.5,
                        33.2,
                        34.1,
                        22.0,
                        35.8,
                        22.9,
                        21.2,
                        33.8,
                        34.8,
                        32.5,
                        21.5,
                        34.5,
                        34.7,
                        34.6,
                        33.4,
                        35.1,
                        35.5,
                        34.9,
                        35.0,
                        35.2,
                        35.3,
                        21.3,
                        36.7,
                        35.6,
                        34.2,
                        35.9,
                        34.4,
                        20.1,
                        38.2,
                        21.7,
                        36.6,
                        21.0,
                        21.6,
                        20.4,
                        35.7,
                        36.8,
                        37.6,
                        36.9,
                        35.4,
                        20.7,
                        20.5,
                        37.2,
                        37.0,
                        20.9,
                        20.8,
                        36.1,
                        20.2,
                        36.0,
                        36.3,
                        20.3,
                        38.9,
                        36.5,
                        38.6,
                        38.0,
                        37.3,
                        20.6,
                        37.4,
                        36.2,
                        38.5,
                        39.0,
                        19.8,
                        39.4,
                        36.4,
                        38.1,
                        37.9,
                        37.1,
                        38.4,
                        37.5,
                        40.0,
                        20.0,
                        39.5,
                        37.7,
                        39.2,
                        40.3,
                        37.8,
                        39.6,
                        38.8,
                        38.7,
                        39.7,
                        19.2,
                        38.3,
                        42.2,
                        40.1,
                        19.1,
                        39.8,
                        19.3,
                        39.1,
                        19.5,
                        19.7,
                        19.6,
                        40.2,
                        19.4,
                        40.4,
                        41.5,
                        19.0,
                        41.2,
                        41.3,
                        40.5,
                        39.3,
                        39.9,
                        41.7,
                        18.3,
                        19.9,
                        40.7,
                        41.0,
                        41.1,
                        41.8,
                        43.8,
                        41.6,
                        42.6,
                        43.1,
                        41.4,
                        42.9,
                        41.9,
                        43.7,
                        42.1,
                        18.7,
                        18.1,
                        40.9,
                        40.8,
                        42.4,
                        42.8,
                        42.5,
                        18.8,
                        43.4,
                        40.6,
                        43.2,
                        43.3,
                        42.3,
                        42.7,
                        18.4,
                        44.4,
                        43.5,
                        44.8,
                        42.0,
                        18.5,
                        18.9,
                        43.9,
                        45.0,
                        44.6,
                        18.6,
                        44.0,
                        44.3,
                        44.7,
                        43.0,
                        45.3,
                        17.1,
                        44.1,
                        44.5,
                        45.6,
                        46.2,
                        17.6,
                        43.6,
                        17.3,
                        45.4,
                        45.2,
                        45.5,
                        46.5,
                        47.2,
                        46.6,
                        46.8,
                        46.0,
                        47.3,
                        46.9,
                        47.0,
                        18.2,
                        45.7,
                        47.5,
                        45.1,
                        17.5,
                        47.8,
                        45.9,
                        17.8,
                        46.1,
                        17.9,
                        50.3,
                        47.6,
                        48.9,
                        46.4,
                        49.3,
                        17.2,
                        49.8,
                        47.9,
                        17.7,
                        44.2,
                        51.0,
                        47.4,
                        16.4,
                        50.8,
                        18.0,
                        46.7,
                        50.5,
                        17.4,
                        47.1,
                        45.8,
                        49.9,
                        44.9,
                        49.1,
                        48.4,
                        53.2,
                        48.8,
                        16.2,
                        55.2,
                        16.1,
                        49.2,
                        50.0,
                        48.1,
                        48.7,
                        48.0,
                        17.0,
                        15.7,
                        50.9,
                        49.0,
                        16.7,
                        16.8,
                        51.1,
                        47.7,
                        50.2,
                        46.3,
                        49.7,
                        51.3,
                        16.5,
                        55.4,
                        48.2,
                        48.3,
                        49.5,
                        48.5,
                        48.6,
                        52.4,
                        53.0,
                        50.4,
                        55.9,
                        51.5,
                        49.4,
                        52.3,
                        54.7,
                        49.6,
                        52.8,
                        54.1,
                        16.9,
                        50.6,
                        52.2,
                        53.8,
                        52.9,
                        16.0,
                        50.1,
                        51.7,
                        51.8,
                        54.6,
                        57.3,
                        53.4,
                        51.6,
                        52.7,
                        54.9,
                        15.4,
                        15.9,
                        15.1,
                        15.8,
                        57.6,
                        55.3,
                        56.0,
                        51.9,
                        51.4,
                        54.5,
                        15.3,
                        53.6,
                        60.5,
                        56.6,
                        52.6,
                        15.0,
                        50.7,
                        16.3,
                        55.0,
                        59.2,
                        51.2,
                        54.0,
                        64.2,
                        53.3,
                        55.8,
                        16.6,
                        57.1,
                        59.3,
                        53.9,
                        54.8,
                        55.7,
                        15.2,
                        59.7,
                        56.7,
                        56.3,
                        56.2,
                        14.3,
                        60.1,
                        59.0,
                        57.0,
                        52.0,
                        15.6,
                        55.5,
                        60.2,
                        56.8,
                        14.9,
                        15.5,
                        56.5,
                        54.2,
                        58.9,
                        55.6,
                        62.9,
                        58.6,
                        52.5,
                        58.4,
                        64.8,
                        56.4,
                        65.5,
                        60.9,
                        52.1,
                        57.7,
                        54.4,
                        53.5,
                        14.1,
                        14.8,
                        54.3,
                        58.1,
                        61.9,
                        55.1,
                        57.9,
                        69.8,
                        67.0,
                        66.3,
                        11.5,
                        72.2,
                        58.7,
                        12.5,
                        71.9,
                        65.3,
                        64.0,
                        66.4,
                        13.8,
                        62.0,
                        60.6,
                        61.2,
                        62.3,
                        63.5,
                        60.7,
                        71.5,
                        12.9,
                        68.5,
                        56.1,
                        61.1,
                        60.3,
                        64.7,
                        61.3,
                        59.9,
                        10.1,
                        56.9,
                        13.2,
                        61.6,
                        10.8,
                        78.0,
                        63.6,
                        57.5,
                        14.6,
                        62.2,
                        71.7,
                        14.7,
                        53.7,
                        11.0,
                        58.0,
                        13.5,
                        14.0,
                        57.4,
                        63.0,
                        58.3,
                        60.0,
                        65.7,
                        64.4,
                        13.1,
                        68.0,
                        59.1,
                        80.1,
                        61.0,
                        64.1,
                        68.6,
                        59.6,
                        71.8,
                        12.7,
                        58.8,
                        58.2,
                        65.9,
                        57.2,
                        63.3,
                        13.0,
                        61.8,
                        63.8,
                        92.0,
                        89.0,
                        63.2,
                        70.3,
                        82.7
                    ],
                    "freq_count": {
                        "26.1": 621,
                        "27.6": 621,
                        "26.8": 618,
                        "27.5": 606,
                        "28.6": 603,
                        "27.7": 597,
                        "30.6": 594,
                        "26.2": 591,
                        "25.3": 591,
                        "27.1": 582,
                        "28.4": 576,
                        "27.3": 567,
                        "29.6": 567,
                        "26.9": 561,
                        "30.7": 561,
                        "26.0": 561,
                        "28.1": 558,
                        "28.8": 555,
                        "28.3": 555,
                        "30.0": 555,
                        "26.7": 552,
                        "24.9": 552,
                        "27.0": 552,
                        "28.2": 552,
                        "27.2": 549,
                        "27.9": 546,
                        "25.2": 543,
                        "24.8": 543,
                        "28.9": 540,
                        "29.8": 540,
                        "30.9": 537,
                        "26.5": 537,
                        "25.5": 537,
                        "29.4": 534,
                        "26.6": 528,
                        "29.9": 528,
                        "24.3": 525,
                        "25.4": 522,
                        "28.0": 522,
                        "27.8": 519,
                        "28.7": 516,
                        "30.3": 513,
                        "26.3": 513,
                        "25.1": 510,
                        "29.0": 510,
                        "29.7": 510,
                        "25.7": 510,
                        "25.6": 510,
                        "25.0": 507,
                        "25.9": 507,
                        "26.4": 501,
                        "24.2": 501,
                        "23.0": 501,
                        "28.5": 501,
                        "24.6": 501,
                        "31.5": 498,
                        "27.4": 498,
                        "32.8": 498,
                        "30.8": 495,
                        "29.5": 495,
                        "24.5": 492,
                        "30.2": 492,
                        "24.0": 492,
                        "24.4": 489,
                        "25.8": 489,
                        "29.3": 486,
                        "22.5": 477,
                        "23.8": 474,
                        "31.6": 474,
                        "24.1": 474,
                        "30.4": 474,
                        "23.6": 471,
                        "22.7": 471,
                        "31.7": 468,
                        "23.2": 468,
                        "30.5": 468,
                        "30.1": 468,
                        "31.8": 468,
                        "31.0": 459,
                        "23.3": 453,
                        "29.2": 450,
                        "23.7": 450,
                        "31.1": 444,
                        "29.1": 441,
                        "31.4": 441,
                        "31.9": 432,
                        "23.1": 432,
                        "32.6": 432,
                        "31.2": 432,
                        "23.4": 426,
                        "22.8": 426,
                        "22.1": 423,
                        "23.5": 423,
                        "24.7": 414,
                        "23.9": 408,
                        "32.0": 399,
                        "32.1": 396,
                        "31.3": 396,
                        "22.3": 396,
                        "22.2": 393,
                        "32.2": 390,
                        "33.0": 390,
                        "33.3": 387,
                        "32.9": 387,
                        "33.1": 381,
                        "22.6": 375,
                        "32.4": 375,
                        "32.3": 369,
                        "32.7": 363,
                        "22.4": 360,
                        "34.0": 357,
                        "21.8": 354,
                        "21.1": 345,
                        "33.7": 336,
                        "33.6": 336,
                        "21.4": 333,
                        "33.9": 333,
                        "21.9": 333,
                        "34.3": 330,
                        "33.5": 327,
                        "33.2": 327,
                        "34.1": 324,
                        "22.0": 324,
                        "35.8": 324,
                        "22.9": 321,
                        "21.2": 318,
                        "33.8": 318,
                        "34.8": 315,
                        "32.5": 315,
                        "21.5": 315,
                        "34.5": 306,
                        "34.7": 300,
                        "34.6": 300,
                        "33.4": 297,
                        "35.1": 297,
                        "35.5": 291,
                        "34.9": 288,
                        "35.0": 285,
                        "35.2": 285,
                        "35.3": 282,
                        "21.3": 282,
                        "36.7": 282,
                        "35.6": 276,
                        "34.2": 276,
                        "35.9": 273,
                        "34.4": 273,
                        "20.1": 270,
                        "38.2": 261,
                        "21.7": 258,
                        "36.6": 255,
                        "21.0": 252,
                        "21.6": 246,
                        "20.4": 246,
                        "35.7": 243,
                        "36.8": 243,
                        "37.6": 240,
                        "36.9": 237,
                        "35.4": 234,
                        "20.7": 234,
                        "20.5": 231,
                        "37.2": 231,
                        "37.0": 228,
                        "20.9": 225,
                        "20.8": 222,
                        "36.1": 222,
                        "20.2": 219,
                        "36.0": 219,
                        "36.3": 216,
                        "20.3": 213,
                        "38.9": 210,
                        "36.5": 207,
                        "38.6": 198,
                        "38.0": 198,
                        "37.3": 195,
                        "20.6": 195,
                        "37.4": 192,
                        "36.2": 189,
                        "38.5": 189,
                        "39.0": 189,
                        "19.8": 189,
                        "39.4": 189,
                        "36.4": 189,
                        "38.1": 189,
                        "37.9": 186,
                        "37.1": 183,
                        "38.4": 180,
                        "37.5": 177,
                        "40.0": 174,
                        "20.0": 168,
                        "39.5": 165,
                        "37.7": 165,
                        "39.2": 165,
                        "40.3": 162,
                        "37.8": 162,
                        "39.6": 162,
                        "38.8": 159,
                        "38.7": 156,
                        "39.7": 150,
                        "19.2": 147,
                        "38.3": 147,
                        "42.2": 147,
                        "40.1": 144,
                        "19.1": 141,
                        "39.8": 141,
                        "19.3": 141,
                        "39.1": 141,
                        "19.5": 141,
                        "19.7": 138,
                        "19.6": 138,
                        "40.2": 135,
                        "19.4": 132,
                        "40.4": 126,
                        "41.5": 126,
                        "19.0": 126,
                        "41.2": 126,
                        "41.3": 123,
                        "40.5": 123,
                        "39.3": 120,
                        "39.9": 120,
                        "41.7": 114,
                        "18.3": 111,
                        "19.9": 111,
                        "40.7": 108,
                        "41.0": 108,
                        "41.1": 108,
                        "41.8": 105,
                        "43.8": 105,
                        "41.6": 102,
                        "42.6": 102,
                        "43.1": 99,
                        "41.4": 99,
                        "42.9": 96,
                        "41.9": 96,
                        "43.7": 96,
                        "42.1": 96,
                        "18.7": 96,
                        "18.1": 93,
                        "40.9": 93,
                        "40.8": 93,
                        "42.4": 93,
                        "42.8": 90,
                        "42.5": 90,
                        "18.8": 90,
                        "43.4": 87,
                        "40.6": 84,
                        "43.2": 84,
                        "43.3": 81,
                        "42.3": 78,
                        "42.7": 78,
                        "18.4": 75,
                        "44.4": 75,
                        "43.5": 72,
                        "44.8": 69,
                        "42.0": 69,
                        "18.5": 69,
                        "18.9": 66,
                        "43.9": 66,
                        "45.0": 66,
                        "44.6": 66,
                        "18.6": 66,
                        "44.0": 63,
                        "44.3": 63,
                        "44.7": 63,
                        "43.0": 63,
                        "45.3": 60,
                        "17.1": 60,
                        "44.1": 57,
                        "44.5": 57,
                        "45.6": 57,
                        "46.2": 57,
                        "17.6": 57,
                        "43.6": 54,
                        "17.3": 54,
                        "45.4": 54,
                        "45.2": 54,
                        "45.5": 54,
                        "46.5": 54,
                        "47.2": 54,
                        "46.6": 54,
                        "46.8": 54,
                        "46.0": 54,
                        "47.3": 54,
                        "46.9": 51,
                        "47.0": 51,
                        "18.2": 51,
                        "45.7": 48,
                        "47.5": 45,
                        "45.1": 45,
                        "17.5": 45,
                        "47.8": 45,
                        "45.9": 45,
                        "17.8": 45,
                        "46.1": 45,
                        "17.9": 42,
                        "50.3": 42,
                        "47.6": 42,
                        "48.9": 42,
                        "46.4": 39,
                        "49.3": 39,
                        "17.2": 39,
                        "49.8": 36,
                        "47.9": 36,
                        "17.7": 36,
                        "44.2": 36,
                        "51.0": 36,
                        "47.4": 36,
                        "16.4": 36,
                        "50.8": 33,
                        "18.0": 33,
                        "46.7": 33,
                        "50.5": 33,
                        "17.4": 33,
                        "47.1": 33,
                        "45.8": 33,
                        "49.9": 30,
                        "44.9": 30,
                        "49.1": 30,
                        "48.4": 30,
                        "53.2": 30,
                        "48.8": 30,
                        "16.2": 30,
                        "55.2": 27,
                        "16.1": 27,
                        "49.2": 27,
                        "50.0": 27,
                        "48.1": 27,
                        "48.7": 27,
                        "48.0": 27,
                        "17.0": 27,
                        "15.7": 24,
                        "50.9": 24,
                        "49.0": 24,
                        "16.7": 24,
                        "16.8": 24,
                        "51.1": 24,
                        "47.7": 24,
                        "50.2": 24,
                        "46.3": 24,
                        "49.7": 21,
                        "51.3": 21,
                        "16.5": 21,
                        "55.4": 21,
                        "48.2": 21,
                        "48.3": 21,
                        "49.5": 21,
                        "48.5": 21,
                        "48.6": 21,
                        "52.4": 21,
                        "53.0": 21,
                        "50.4": 21,
                        "55.9": 21,
                        "51.5": 21,
                        "49.4": 21,
                        "52.3": 18,
                        "54.7": 18,
                        "49.6": 18,
                        "52.8": 18,
                        "54.1": 18,
                        "16.9": 18,
                        "50.6": 18,
                        "52.2": 18,
                        "53.8": 18,
                        "52.9": 18,
                        "16.0": 18,
                        "50.1": 15,
                        "51.7": 15,
                        "51.8": 15,
                        "54.6": 15,
                        "57.3": 15,
                        "53.4": 15,
                        "51.6": 15,
                        "52.7": 15,
                        "54.9": 15,
                        "15.4": 12,
                        "15.9": 12,
                        "15.1": 12,
                        "15.8": 12,
                        "57.6": 12,
                        "55.3": 12,
                        "56.0": 12,
                        "51.9": 12,
                        "51.4": 12,
                        "54.5": 12,
                        "15.3": 12,
                        "53.6": 12,
                        "60.5": 12,
                        "56.6": 12,
                        "52.6": 12,
                        "15.0": 12,
                        "50.7": 12,
                        "16.3": 12,
                        "55.0": 12,
                        "59.2": 12,
                        "51.2": 12,
                        "54.0": 12,
                        "64.2": 9,
                        "53.3": 9,
                        "55.8": 9,
                        "16.6": 9,
                        "57.1": 9,
                        "59.3": 9,
                        "53.9": 9,
                        "54.8": 9,
                        "55.7": 9,
                        "15.2": 9,
                        "59.7": 9,
                        "56.7": 9,
                        "56.3": 9,
                        "56.2": 9,
                        "14.3": 9,
                        "60.1": 9,
                        "59.0": 9,
                        "57.0": 9,
                        "52.0": 9,
                        "15.6": 9,
                        "55.5": 9,
                        "60.2": 9,
                        "56.8": 6,
                        "14.9": 6,
                        "15.5": 6,
                        "56.5": 6,
                        "54.2": 6,
                        "58.9": 6,
                        "55.6": 6,
                        "62.9": 6,
                        "58.6": 6,
                        "52.5": 6,
                        "58.4": 6,
                        "64.8": 6,
                        "56.4": 6,
                        "65.5": 6,
                        "60.9": 6,
                        "52.1": 6,
                        "57.7": 6,
                        "54.4": 6,
                        "53.5": 6,
                        "14.1": 6,
                        "14.8": 6,
                        "54.3": 6,
                        "58.1": 6,
                        "61.9": 6,
                        "55.1": 6,
                        "57.9": 6,
                        "69.8": 3,
                        "67.0": 3,
                        "66.3": 3,
                        "11.5": 3,
                        "72.2": 3,
                        "58.7": 3,
                        "12.5": 3,
                        "71.9": 3,
                        "65.3": 3,
                        "64.0": 3,
                        "66.4": 3,
                        "13.8": 3,
                        "62.0": 3,
                        "60.6": 3,
                        "61.2": 3,
                        "62.3": 3,
                        "63.5": 3,
                        "60.7": 3,
                        "71.5": 3,
                        "12.9": 3,
                        "68.5": 3,
                        "56.1": 3,
                        "61.1": 3,
                        "60.3": 3,
                        "64.7": 3,
                        "61.3": 3,
                        "59.9": 3,
                        "10.1": 3,
                        "56.9": 3,
                        "13.2": 3,
                        "61.6": 3,
                        "10.8": 3,
                        "78.0": 3,
                        "63.6": 3,
                        "57.5": 3,
                        "14.6": 3,
                        "62.2": 3,
                        "71.7": 3,
                        "14.7": 3,
                        "53.7": 3,
                        "11.0": 3,
                        "58.0": 3,
                        "13.5": 3,
                        "14.0": 3,
                        "57.4": 3,
                        "63.0": 3,
                        "58.3": 3,
                        "60.0": 3,
                        "65.7": 3,
                        "64.4": 3,
                        "13.1": 3,
                        "68.0": 3,
                        "59.1": 3,
                        "80.1": 3,
                        "61.0": 3,
                        "64.1": 3,
                        "68.6": 3,
                        "59.6": 3,
                        "71.8": 3,
                        "12.7": 3,
                        "58.8": 3,
                        "58.2": 3,
                        "65.9": 3,
                        "57.2": 3,
                        "63.3": 3,
                        "13.0": 3,
                        "61.8": 3,
                        "63.8": 3,
                        "92.0": 3,
                        "89.0": 3,
                        "63.2": 3,
                        "70.3": 3,
                        "82.7": 3
                    },
                    "mode": [
                        26.1,
                        27.6
                    ],
                    "na_count": 0.0,
                    "na_count_percentage": 0.0,
                    "missing_count": 0,
                    "missing_count_percentage": 0.0
                },
                "dtype": "float64",
                "type": "nominal"
            },
            {
                "name": "smoking_status",
                "dataset_type": "distributed_structured",
                "metrics": {
                    "outliers": [],
                    "freq_count": {
                        "never smoked": 47241,
                        "formerly smoked": 21297,
                        "smokes": 18678
                    },
                    "mode": [
                        "never smoked"
                    ],
                    "na_count": 0.0,
                    "na_count_percentage": 0.0,
                    "missing_count": 0,
                    "missing_count_percentage": 0.0
                },
                "dtype": "object",
                "type": "nominal"
            },
            {
                "name": "stroke",
                "dataset_type": "distributed_structured",
                "metrics": {
                    "outliers": [
                        1
                    ],
                    "freq_count": {
                        "0": 85572,
                        "1": 1644
                    },
                    "mode": [
                        0
                    ],
                    "na_count": 0.0,
                    "na_count_percentage": 0.0,
                    "missing_count": 0,
                    "missing_count_percentage": 0.0
                },
                "dtype": "int32",
                "type": "nominal"
            }
        ],
        "metrics": {}
    },
    "local_storage_required": false,
    "sample_percentage": 100,
    "CONTROLLER_SECTION": "controller",
    "CLIENT_PATH": "client_path",
    "path": "/home/gagandeep.chhabra/.xpr/",
    "token_file": "/home/gagandeep.chhabra/.xpr/.current"
}